<svg width="80" height="80" viewBox="0 0 80 80" fill="none" xmlns="http://www.w3.org/2000/svg">
<path d="M67 17.5H13V22H67V17.5Z" fill="#4D4D4D"/>
<path d="M67 37.8H13V42.3H67V37.8Z" fill="#4D4D4D"/>
<path d="M67 58H13V62.5H67V58Z" fill="#4D4D4D"/>
</svg>
